{
    "MirrorList": [
	"http://sicopat.fr/HyperDroid_Androidmeda/"
    ],
    "UpdateList": [

    	{   
            "mod": "GT-I9100",
            "board": "GT-I9100",
            "type": "rom",
            "name": "HyperDroid_Androidmeda_v4.0.0_STABLE",
            "version": "4.0.0",
            "description": "STABLE BASE ROM based on XWKK5 | Latest Stable Jkay Mod included | Latest Stable Jedi Kernel | Multi-CSC | Close To Stock | Awesome Speed | Reliable Stability",
            "branch": "S",
            "filename": "Hyperdroid_Androidmeda_v4.0.0_signed.zip"
        },
        {   
            "mod": "GT-I9100",
            "board": "GT-I9100",
            "type": "rom",
            "name": "HyperDroid_Androidmeda_v4.4.7_STABLE",
            "version": "4.4.7",
            "description": " Base is no Wipe | Updated Kernel to UltimateKernel v2.3 | Reverted to WiFi Drivers 2.3.6 (Wifi Drivers from 2.3.5 will be provided as a separate option) | Integrated Unlimited Contacts Joining thanks to Homam Ageel here ( http://forum.xda-developers.com/showthread.php?t=1349803 ) | Base Rom is now multidpi without the need to flash anything else. | Google Maps updated to 6.0.3 | Market updated to version 3.4.4 | Speed up of initial boot time | Other several minor bugfixes across the build",
            "branch": "S",
            "filename": "Hyperdroid_Androidmeda_v4.4.7_signed.zip"
        },
        {   
            "mod": "GT-I9100",
            "board": "GT-I9100",
            "type": "rom",
            "name": "HyperDroid_Androidmeda_v5.0.0_STABLE",
            "version": "5.0.0",
            "description": " STABLE BASE ROM based on XWKL1 | Latest Stable Jkay Mod included | Base is FULL Wipe | Updated Kernel to UltimateKernel v2.7 |  Base Rom is now multidpi without the need to flash anything else. | Google Maps updated to 6.0.3 | Market updated to version 3.4.4 with Multi-DPI support | Speed up of initial boot time | Other several minor bugfixes across the build",
            "branch": "S",
            "filename": "Hyperdroid_Androidmeda_v5.0.0_signed.zip"
        },
         {   
            "mod": "GT-I9100",
            "board": "GT-I9100",
            "type": "rom",
            "name": "HyperDroid_Androidmeda_v5.2.21_STABLE",
            "version": "5.2.21",
            "description": " BASE IS FULL WIPE | Included HDKv1.1| Some specific changes to the updater script| STABLE BASE ROM based on XWKL1 | Latest Stable Jkay Mod included | Removed several init.d scripts -S01sysctl -S95ramscript, removed sysctl.conf - all embedded in kernel | Further tunning of S98optitweaks for performance and battery | Fixed Phone icon display on mdpi | Fixed MusicHub icon display in mdpi.| Inluded new Bootanimation by rudolf895 | Includes new market 3.4.4 stock by default ",
            "branch": "S",
            "filename": "Hyperdroid_Androidmeda_v5.2.21_signed.zip"
        }

    ]
}
